^D:\REPOS VISUAL STUDIO\EJERCICIOS ANGEL\PRACTICA DE MOTORES ALFONSO LÓPEZ VIEJO\CODE\SOURCES\MAIN.CPP
/c /I../../../CODE/HEADERS /Zi /nologo /W3 /WX- /diagnostics:column /Oi /D NDEBUG /D _WINDOWS /D _UNICODE /D UNICODE /Gm- /EHsc /MD /GS /Gy /fp:precise /permissive- /Zc:wchar_t /Zc:forScope /Zc:inline /Fo"X64\RELEASE\\" /Fd"X64\RELEASE\VC142.PDB" /Gd /TP /FC D:\REPOS VISUAL STUDIO\EJERCICIOS ANGEL\PRACTICA DE MOTORES ALFONSO LÓPEZ VIEJO\CODE\SOURCES\MAIN.CPP
^D:\REPOS VISUAL STUDIO\EJERCICIOS ANGEL\PRACTICA DE MOTORES ALFONSO LÓPEZ VIEJO\CODE\SOURCES\PLAYER.CPP
/c /I../../../CODE/HEADERS /Zi /nologo /W3 /WX- /diagnostics:column /Oi /D NDEBUG /D _WINDOWS /D _UNICODE /D UNICODE /Gm- /EHsc /MD /GS /Gy /fp:precise /permissive- /Zc:wchar_t /Zc:forScope /Zc:inline /Fo"X64\RELEASE\\" /Fd"X64\RELEASE\VC142.PDB" /Gd /TP /FC D:\REPOS VISUAL STUDIO\EJERCICIOS ANGEL\PRACTICA DE MOTORES ALFONSO LÓPEZ VIEJO\CODE\SOURCES\PLAYER.CPP
